%YAML 1.1
%TAG !u! tag:unity3d.com,2011:
--- !u!74 &7400000
AnimationClip:
  m_ObjectHideFlags: 0
  m_CorrespondingSourceObject: {fileID: 0}
  m_PrefabInternal: {fileID: 0}
  m_Name: PlayerAnimDown
  serializedVersion: 6
  m_Legacy: 0
  m_Compressed: 0
  m_UseHighQualityCurve: 1
  m_RotationCurves: []
  m_CompressedRotationCurves: []
  m_EulerCurves:
  - curve:
      serializedVersion: 2
      m_Curve:
      - serializedVersion: 3
        time: 0
        value: {x: 0, y: 0, z: 180}
        inSlope: {x: 0, y: 0, z: 0}
        outSlope: {x: 0, y: 0, z: 0}
        tangentMode: 0
        weightedMode: 0
        inWeight: {x: 0.33333334, y: 0.33333334, z: 0.33333334}
        outWeight: {x: 0.33333334, y: 0.33333334, z: 0.33333334}
      m_PreInfinity: 2
      m_PostInfinity: 2
      m_RotationOrder: 4
    path: 
  m_PositionCurves: []
  m_ScaleCurves: []
  m_FloatCurves: []
  m_PPtrCurves:
  - curve:
    - time: 0
      value: {fileID: 21300000, guid: 8de3442bf360a0e4f9e6cb9eea8f8168, type: 3}
    - time: 0.1
      value: {fileID: 21300000, guid: fae3a1becad6639448da3d0653e954a7, type: 3}
    - time: 0.2
      value: {fileID: 21300000, guid: 27e63a8b9ab9aab46a428c2e2474864d, type: 3}
    - time: 0.3
      value: {fileID: 21300000, guid: f0f81a1e06a320b4bbda94d960cdf7d8, type: 3}
    - time: 0.4
      value: {fileID: 21300000, guid: 2f6ee621441c394428e80aca4f4969df, type: 3}
    - time: 0.5
      value: {fileID: 21300000, guid: 0851e492ed1c1e242b0903555e4b0443, type: 3}
    - time: 0.6
      value: {fileID: 21300000, guid: 2a9ac61e60b4caa4896e844846206946, type: 3}
    - time: 0.7
      value: {fileID: 21300000, guid: 1b847811db0413d4a9e06d052b68de79, type: 3}
    - time: 0.8
      value: {fileID: 21300000, guid: 0e78f76a732ccca45a1bce21b9b1ff73, type: 3}
    - time: 0.9
      value: {fileID: 21300000, guid: 32f1f6f7f75538e47ab4c4a4d38c0395, type: 3}
    - time: 1
      value: {fileID: 21300000, guid: 8de3442bf360a0e4f9e6cb9eea8f8168, type: 3}
    - time: 1.1
      value: {fileID: 21300000, guid: bc9110555bdf4e942ad94b8ce2e10860, type: 3}
    - time: 1.2
      value: {fileID: 21300000, guid: 1d674a0dc6250734f9c57e3351c2f2fb, type: 3}
    - time: 1.3
      value: {fileID: 21300000, guid: 5dd305394e5624941852980e5d6eddc7, type: 3}
    - time: 1.4
      value: {fileID: 21300000, guid: 5518837d1b505494fa2a83ccc76c495d, type: 3}
    attribute: m_Sprite
    path: 
    classID: 212
    script: {fileID: 0}
  m_SampleRate: 10
  m_WrapMode: 0
  m_Bounds:
    m_Center: {x: 0, y: 0, z: 0}
    m_Extent: {x: 0, y: 0, z: 0}
  m_ClipBindingConstant:
    genericBindings:
    - serializedVersion: 2
      path: 0
      attribute: 0
      script: {fileID: 0}
      typeID: 212
      customType: 23
      isPPtrCurve: 1
    - serializedVersion: 2
      path: 0
      attribute: 4
      script: {fileID: 0}
      typeID: 4
      customType: 4
      isPPtrCurve: 0
    pptrCurveMapping:
    - {fileID: 21300000, guid: 8de3442bf360a0e4f9e6cb9eea8f8168, type: 3}
    - {fileID: 21300000, guid: fae3a1becad6639448da3d0653e954a7, type: 3}
    - {fileID: 21300000, guid: 27e63a8b9ab9aab46a428c2e2474864d, type: 3}
    - {fileID: 21300000, guid: f0f81a1e06a320b4bbda94d960cdf7d8, type: 3}
    - {fileID: 21300000, guid: 2f6ee621441c394428e80aca4f4969df, type: 3}
    - {fileID: 21300000, guid: 0851e492ed1c1e242b0903555e4b0443, type: 3}
    - {fileID: 21300000, guid: 2a9ac61e60b4caa4896e844846206946, type: 3}
    - {fileID: 21300000, guid: 1b847811db0413d4a9e06d052b68de79, type: 3}
    - {fileID: 21300000, guid: 0e78f76a732ccca45a1bce21b9b1ff73, type: 3}
    - {fileID: 21300000, guid: 32f1f6f7f75538e47ab4c4a4d38c0395, type: 3}
    - {fileID: 21300000, guid: 8de3442bf360a0e4f9e6cb9eea8f8168, type: 3}
    - {fileID: 21300000, guid: bc9110555bdf4e942ad94b8ce2e10860, type: 3}
    - {fileID: 21300000, guid: 1d674a0dc6250734f9c57e3351c2f2fb, type: 3}
    - {fileID: 21300000, guid: 5dd305394e5624941852980e5d6eddc7, type: 3}
    - {fileID: 21300000, guid: 5518837d1b505494fa2a83ccc76c495d, type: 3}
  m_AnimationClipSettings:
    serializedVersion: 2
    m_AdditiveReferencePoseClip: {fileID: 0}
    m_AdditiveReferencePoseTime: 0
    m_StartTime: 0
    m_StopTime: 1.5
    m_OrientationOffsetY: 0
    m_Level: 0
    m_CycleOffset: 0
    m_HasAdditiveReferencePose: 0
    m_LoopTime: 1
    m_LoopBlend: 0
    m_LoopBlendOrientation: 0
    m_LoopBlendPositionY: 0
    m_LoopBlendPositionXZ: 0
    m_KeepOriginalOrientation: 0
    m_KeepOriginalPositionY: 1
    m_KeepOriginalPositionXZ: 0
    m_HeightFromFeet: 0
    m_Mirror: 0
  m_EditorCurves:
  - curve:
      serializedVersion: 2
      m_Curve:
      - serializedVersion: 3
        time: 0
        value: 0
        inSlope: 0
        outSlope: 0
        tangentMode: 136
        weightedMode: 0
        inWeight: 0.33333334
        outWeight: 0.33333334
      m_PreInfinity: 2
      m_PostInfinity: 2
      m_RotationOrder: 4
    attribute: localEulerAnglesRaw.x
    path: 
    classID: 4
    script: {fileID: 0}
  - curve:
      serializedVersion: 2
      m_Curve:
      - serializedVersion: 3
        time: 0
        value: 0
        inSlope: 0
        outSlope: 0
        tangentMode: 136
        weightedMode: 0
        inWeight: 0.33333334
        outWeight: 0.33333334
      m_PreInfinity: 2
      m_PostInfinity: 2
      m_RotationOrder: 4
    attribute: localEulerAnglesRaw.y
    path: 
    classID: 4
    script: {fileID: 0}
  - curve:
      serializedVersion: 2
      m_Curve:
      - serializedVersion: 3
        time: 0
        value: 180
        inSlope: 0
        outSlope: 0
        tangentMode: 136
        weightedMode: 0
        inWeight: 0.33333334
        outWeight: 0.33333334
      m_PreInfinity: 2
      m_PostInfinity: 2
      m_RotationOrder: 4
    attribute: localEulerAnglesRaw.z
    path: 
    classID: 4
    script: {fileID: 0}
  m_EulerEditorCurves:
  - curve:
      serializedVersion: 2
      m_Curve: []
      m_PreInfinity: 2
      m_PostInfinity: 2
      m_RotationOrder: 4
    attribute: m_LocalEulerAngles.x
    path: 
    classID: 4
    script: {fileID: 0}
  - curve:
      serializedVersion: 2
      m_Curve: []
      m_PreInfinity: 2
      m_PostInfinity: 2
      m_RotationOrder: 4
    attribute: m_LocalEulerAngles.y
    path: 
    classID: 4
    script: {fileID: 0}
  - curve:
      serializedVersion: 2
      m_Curve: []
      m_PreInfinity: 2
      m_PostInfinity: 2
      m_RotationOrder: 4
    attribute: m_LocalEulerAngles.z
    path: 
    classID: 4
    script: {fileID: 0}
  m_HasGenericRootTransform: 1
  m_HasMotionFloatCurves: 0
  m_GenerateMotionCurves: 0
  m_Events: []
