%YAML 1.1
%TAG !u! tag:unity3d.com,2011:
--- !u!74 &7400000
AnimationClip:
  m_ObjectHideFlags: 0
  m_CorrespondingSourceObject: {fileID: 0}
  m_PrefabInternal: {fileID: 0}
  m_Name: KillerAnimNW
  serializedVersion: 6
  m_Legacy: 0
  m_Compressed: 0
  m_UseHighQualityCurve: 1
  m_RotationCurves: []
  m_CompressedRotationCurves: []
  m_EulerCurves:
  - curve:
      serializedVersion: 2
      m_Curve:
      - serializedVersion: 3
        time: 0
        value: {x: 0, y: 0, z: 42.36}
        inSlope: {x: 0, y: 0, z: 0}
        outSlope: {x: 0, y: 0, z: 0}
        tangentMode: 0
        weightedMode: 0
        inWeight: {x: 0.33333334, y: 0.33333334, z: 0.33333334}
        outWeight: {x: 0.33333334, y: 0.33333334, z: 0.33333334}
      - serializedVersion: 3
        time: 1.5
        value: {x: 0, y: 0, z: 42.36}
        inSlope: {x: 0, y: 0, z: 0}
        outSlope: {x: 0, y: 0, z: 0}
        tangentMode: 0
        weightedMode: 0
        inWeight: {x: 0.33333334, y: 0.33333334, z: 0.33333334}
        outWeight: {x: 0.33333334, y: 0.33333334, z: 0.33333334}
      m_PreInfinity: 2
      m_PostInfinity: 2
      m_RotationOrder: 4
    path: 
  m_PositionCurves: []
  m_ScaleCurves: []
  m_FloatCurves: []
  m_PPtrCurves:
  - curve:
    - time: 0
      value: {fileID: 21300000, guid: 72a6b47c0a8308142826e81c4de06cbf, type: 3}
    - time: 0.1
      value: {fileID: 21300000, guid: e713f6476656db54a8698f36c408c0cc, type: 3}
    - time: 0.2
      value: {fileID: 21300000, guid: 1ec0cd731227a0240ba7700a33111f6f, type: 3}
    - time: 0.3
      value: {fileID: 21300000, guid: ac019c5313517c84da0c10dc73828f1d, type: 3}
    - time: 0.4
      value: {fileID: 21300000, guid: f3b045f95f68be843b43d0a6f8f65cfa, type: 3}
    - time: 0.5
      value: {fileID: 21300000, guid: f7df12c14c9623741bc2bedb2a927e59, type: 3}
    - time: 0.6
      value: {fileID: 21300000, guid: d616dbd09efdfed41875753e82286da9, type: 3}
    - time: 0.7
      value: {fileID: 21300000, guid: 61f98bd431b811945ab0bd58e9afe989, type: 3}
    - time: 0.8
      value: {fileID: 21300000, guid: edb6e87d1c15a5046845c9feb79155d8, type: 3}
    - time: 0.9
      value: {fileID: 21300000, guid: 4e08557d57c7f714ca884ffba7838010, type: 3}
    - time: 1
      value: {fileID: 21300000, guid: dd712a1823862ef4c9260ec9356d1d06, type: 3}
    - time: 1.1
      value: {fileID: 21300000, guid: 2d29d303dd38b0747bc381b90ba1dde2, type: 3}
    - time: 1.2
      value: {fileID: 21300000, guid: 9897f4bf7e7e18a47b7fe80d80469df5, type: 3}
    - time: 1.3
      value: {fileID: 21300000, guid: 18e2fd47fc9b7ae4e81e04fe246013d5, type: 3}
    - time: 1.4
      value: {fileID: 21300000, guid: 4202e08ee2f7dd44c9ac829c61c19026, type: 3}
    - time: 1.5
      value: {fileID: 21300000, guid: 3ab086144c0f14848a50969703a31a29, type: 3}
    attribute: m_Sprite
    path: 
    classID: 212
    script: {fileID: 0}
  m_SampleRate: 10
  m_WrapMode: 0
  m_Bounds:
    m_Center: {x: 0, y: 0, z: 0}
    m_Extent: {x: 0, y: 0, z: 0}
  m_ClipBindingConstant:
    genericBindings:
    - serializedVersion: 2
      path: 0
      attribute: 0
      script: {fileID: 0}
      typeID: 212
      customType: 23
      isPPtrCurve: 1
    - serializedVersion: 2
      path: 0
      attribute: 4
      script: {fileID: 0}
      typeID: 4
      customType: 4
      isPPtrCurve: 0
    pptrCurveMapping:
    - {fileID: 21300000, guid: 72a6b47c0a8308142826e81c4de06cbf, type: 3}
    - {fileID: 21300000, guid: e713f6476656db54a8698f36c408c0cc, type: 3}
    - {fileID: 21300000, guid: 1ec0cd731227a0240ba7700a33111f6f, type: 3}
    - {fileID: 21300000, guid: ac019c5313517c84da0c10dc73828f1d, type: 3}
    - {fileID: 21300000, guid: f3b045f95f68be843b43d0a6f8f65cfa, type: 3}
    - {fileID: 21300000, guid: f7df12c14c9623741bc2bedb2a927e59, type: 3}
    - {fileID: 21300000, guid: d616dbd09efdfed41875753e82286da9, type: 3}
    - {fileID: 21300000, guid: 61f98bd431b811945ab0bd58e9afe989, type: 3}
    - {fileID: 21300000, guid: edb6e87d1c15a5046845c9feb79155d8, type: 3}
    - {fileID: 21300000, guid: 4e08557d57c7f714ca884ffba7838010, type: 3}
    - {fileID: 21300000, guid: dd712a1823862ef4c9260ec9356d1d06, type: 3}
    - {fileID: 21300000, guid: 2d29d303dd38b0747bc381b90ba1dde2, type: 3}
    - {fileID: 21300000, guid: 9897f4bf7e7e18a47b7fe80d80469df5, type: 3}
    - {fileID: 21300000, guid: 18e2fd47fc9b7ae4e81e04fe246013d5, type: 3}
    - {fileID: 21300000, guid: 4202e08ee2f7dd44c9ac829c61c19026, type: 3}
    - {fileID: 21300000, guid: 3ab086144c0f14848a50969703a31a29, type: 3}
  m_AnimationClipSettings:
    serializedVersion: 2
    m_AdditiveReferencePoseClip: {fileID: 0}
    m_AdditiveReferencePoseTime: 0
    m_StartTime: 0
    m_StopTime: 1.6
    m_OrientationOffsetY: 0
    m_Level: 0
    m_CycleOffset: 0
    m_HasAdditiveReferencePose: 0
    m_LoopTime: 1
    m_LoopBlend: 0
    m_LoopBlendOrientation: 0
    m_LoopBlendPositionY: 0
    m_LoopBlendPositionXZ: 0
    m_KeepOriginalOrientation: 0
    m_KeepOriginalPositionY: 1
    m_KeepOriginalPositionXZ: 0
    m_HeightFromFeet: 0
    m_Mirror: 0
  m_EditorCurves:
  - curve:
      serializedVersion: 2
      m_Curve:
      - serializedVersion: 3
        time: 0
        value: 0
        inSlope: 0
        outSlope: 0
        tangentMode: 136
        weightedMode: 0
        inWeight: 0.33333334
        outWeight: 0.33333334
      - serializedVersion: 3
        time: 1.5
        value: 0
        inSlope: 0
        outSlope: 0
        tangentMode: 136
        weightedMode: 0
        inWeight: 0.33333334
        outWeight: 0.33333334
      m_PreInfinity: 2
      m_PostInfinity: 2
      m_RotationOrder: 4
    attribute: localEulerAnglesRaw.x
    path: 
    classID: 4
    script: {fileID: 0}
  - curve:
      serializedVersion: 2
      m_Curve:
      - serializedVersion: 3
        time: 0
        value: 0
        inSlope: 0
        outSlope: 0
        tangentMode: 136
        weightedMode: 0
        inWeight: 0.33333334
        outWeight: 0.33333334
      - serializedVersion: 3
        time: 1.5
        value: 0
        inSlope: 0
        outSlope: 0
        tangentMode: 136
        weightedMode: 0
        inWeight: 0.33333334
        outWeight: 0.33333334
      m_PreInfinity: 2
      m_PostInfinity: 2
      m_RotationOrder: 4
    attribute: localEulerAnglesRaw.y
    path: 
    classID: 4
    script: {fileID: 0}
  - curve:
      serializedVersion: 2
      m_Curve:
      - serializedVersion: 3
        time: 0
        value: 42.36
        inSlope: 0
        outSlope: 0
        tangentMode: 136
        weightedMode: 0
        inWeight: 0.33333334
        outWeight: 0.33333334
      - serializedVersion: 3
        time: 1.5
        value: 42.36
        inSlope: 0
        outSlope: 0
        tangentMode: 136
        weightedMode: 0
        inWeight: 0.33333334
        outWeight: 0.33333334
      m_PreInfinity: 2
      m_PostInfinity: 2
      m_RotationOrder: 4
    attribute: localEulerAnglesRaw.z
    path: 
    classID: 4
    script: {fileID: 0}
  m_EulerEditorCurves:
  - curve:
      serializedVersion: 2
      m_Curve: []
      m_PreInfinity: 2
      m_PostInfinity: 2
      m_RotationOrder: 4
    attribute: m_LocalEulerAngles.x
    path: 
    classID: 4
    script: {fileID: 0}
  - curve:
      serializedVersion: 2
      m_Curve: []
      m_PreInfinity: 2
      m_PostInfinity: 2
      m_RotationOrder: 4
    attribute: m_LocalEulerAngles.y
    path: 
    classID: 4
    script: {fileID: 0}
  - curve:
      serializedVersion: 2
      m_Curve: []
      m_PreInfinity: 2
      m_PostInfinity: 2
      m_RotationOrder: 4
    attribute: m_LocalEulerAngles.z
    path: 
    classID: 4
    script: {fileID: 0}
  m_HasGenericRootTransform: 1
  m_HasMotionFloatCurves: 0
  m_GenerateMotionCurves: 0
  m_Events: []
